-- Merging decision tree log ---
manifest
ADDED from G:\RTR\Android\Robotic Arm\app\src\main\AndroidManifest.xml:2:1-24:12
INJECTED from G:\RTR\Android\Robotic Arm\app\src\main\AndroidManifest.xml:2:1-24:12
INJECTED from G:\RTR\Android\Robotic Arm\app\src\main\AndroidManifest.xml:2:1-24:12
INJECTED from G:\RTR\Android\Robotic Arm\app\src\main\AndroidManifest.xml:2:1-24:12
MERGED from [com.google.android.material:material:1.0.0] C:\Users\ADITI\.gradle\caches\transforms-2\files-2.1\2b30eab05df355fefcf7a54bbd3e93ed\AndroidManifest.xml:17:1-24:12
MERGED from [androidx.appcompat:appcompat:1.0.0] C:\Users\ADITI\.gradle\caches\transforms-2\files-2.1\0cf72bf7b2b7fe591912d65ff74badb3\AndroidManifest.xml:17:1-22:12
MERGED from [androidx.constraintlayout:constraintlayout:1.1.3] C:\Users\ADITI\.gradle\caches\transforms-2\files-2.1\2f303456c356c06345d8a1d59a763bbb\AndroidManifest.xml:2:1-11:12
MERGED from [androidx.fragment:fragment:1.0.0] C:\Users\ADITI\.gradle\caches\transforms-2\files-2.1\078a6dec8f2bc556b736363f611ddeb9\AndroidManifest.xml:17:1-22:12
MERGED from [androidx.vectordrawable:vectordrawable-animated:1.0.0] C:\Users\ADITI\.gradle\caches\transforms-2\files-2.1\7a794546785dffbe98d9937b225d753f\AndroidManifest.xml:17:1-22:12
MERGED from [androidx.recyclerview:recyclerview:1.0.0] C:\Users\ADITI\.gradle\caches\transforms-2\files-2.1\9387e10675d5f2809e0b82c09a81c24f\AndroidManifest.xml:17:1-22:12
MERGED from [androidx.legacy:legacy-support-core-ui:1.0.0] C:\Users\ADITI\.gradle\caches\transforms-2\files-2.1\2f8538a14d6aa27c4373fddf3997e615\AndroidManifest.xml:17:1-22:12
MERGED from [androidx.legacy:legacy-support-core-utils:1.0.0] C:\Users\ADITI\.gradle\caches\transforms-2\files-2.1\96e74ac039a01f220e298071020ecc49\AndroidManifest.xml:17:1-22:12
MERGED from [androidx.vectordrawable:vectordrawable:1.0.0] C:\Users\ADITI\.gradle\caches\transforms-2\files-2.1\dfd2a4f03aabe794c747c769f598c702\AndroidManifest.xml:17:1-22:12
MERGED from [androidx.transition:transition:1.0.0] C:\Users\ADITI\.gradle\caches\transforms-2\files-2.1\c4ac52ae3dd0e922a5cae4fbbdfa6b76\AndroidManifest.xml:17:1-22:12
MERGED from [androidx.loader:loader:1.0.0] C:\Users\ADITI\.gradle\caches\transforms-2\files-2.1\7429688d6d4b96e486548a8b1563a14c\AndroidManifest.xml:17:1-22:12
MERGED from [androidx.viewpager:viewpager:1.0.0] C:\Users\ADITI\.gradle\caches\transforms-2\files-2.1\412fc2651f251d1c519bed78043443fa\AndroidManifest.xml:17:1-22:12
MERGED from [androidx.coordinatorlayout:coordinatorlayout:1.0.0] C:\Users\ADITI\.gradle\caches\transforms-2\files-2.1\8dd692df921b90425bfa53437812a610\AndroidManifest.xml:17:1-22:12
MERGED from [androidx.drawerlayout:drawerlayout:1.0.0] C:\Users\ADITI\.gradle\caches\transforms-2\files-2.1\0eab3c4e51e1cc69ad7b22abe5d70aaa\AndroidManifest.xml:17:1-22:12
MERGED from [androidx.slidingpanelayout:slidingpanelayout:1.0.0] C:\Users\ADITI\.gradle\caches\transforms-2\files-2.1\94b5bd5a1daf1027b452feb960f49019\AndroidManifest.xml:17:1-22:12
MERGED from [androidx.customview:customview:1.0.0] C:\Users\ADITI\.gradle\caches\transforms-2\files-2.1\c29bae176209060443a5512fd8f4808d\AndroidManifest.xml:17:1-22:12
MERGED from [androidx.swiperefreshlayout:swiperefreshlayout:1.0.0] C:\Users\ADITI\.gradle\caches\transforms-2\files-2.1\7c42bd9569188cd31c093625346cfe66\AndroidManifest.xml:17:1-22:12
MERGED from [androidx.asynclayoutinflater:asynclayoutinflater:1.0.0] C:\Users\ADITI\.gradle\caches\transforms-2\files-2.1\02a9ff87b2b60f386c592ea50b040086\AndroidManifest.xml:17:1-22:12
MERGED from [androidx.core:core:1.0.0] C:\Users\ADITI\.gradle\caches\transforms-2\files-2.1\8fd6db655c4c581b3bcbc37864b1e522\AndroidManifest.xml:17:1-24:12
MERGED from [androidx.versionedparcelable:versionedparcelable:1.0.0] C:\Users\ADITI\.gradle\caches\transforms-2\files-2.1\7f65d74f1fada065272389904823dd25\AndroidManifest.xml:17:1-25:12
MERGED from [androidx.cursoradapter:cursoradapter:1.0.0] C:\Users\ADITI\.gradle\caches\transforms-2\files-2.1\1c81abf8101e9183b5f662ba5e96d487\AndroidManifest.xml:17:1-22:12
MERGED from [androidx.cardview:cardview:1.0.0] C:\Users\ADITI\.gradle\caches\transforms-2\files-2.1\0fdc2fab9e44843742cbe203c7b1bdfc\AndroidManifest.xml:17:1-22:12
MERGED from [androidx.lifecycle:lifecycle-runtime:2.0.0] C:\Users\ADITI\.gradle\caches\transforms-2\files-2.1\8673577d0071d981466b7e7b53ce908b\AndroidManifest.xml:17:1-22:12
MERGED from [androidx.documentfile:documentfile:1.0.0] C:\Users\ADITI\.gradle\caches\transforms-2\files-2.1\16ea00e6eaf13f14cd7e49c57470a346\AndroidManifest.xml:17:1-22:12
MERGED from [androidx.localbroadcastmanager:localbroadcastmanager:1.0.0] C:\Users\ADITI\.gradle\caches\transforms-2\files-2.1\0660aa194c2eb7d7f2147c4438c25d04\AndroidManifest.xml:17:1-22:12
MERGED from [androidx.print:print:1.0.0] C:\Users\ADITI\.gradle\caches\transforms-2\files-2.1\c81ae9597b4e398933051c3b22837b48\AndroidManifest.xml:17:1-22:12
MERGED from [androidx.lifecycle:lifecycle-viewmodel:2.0.0] C:\Users\ADITI\.gradle\caches\transforms-2\files-2.1\a916e8f7b43726f2d78f09cb4af4c731\AndroidManifest.xml:17:1-22:12
MERGED from [androidx.interpolator:interpolator:1.0.0] C:\Users\ADITI\.gradle\caches\transforms-2\files-2.1\0bacfdb71029e7e2296ead2162035297\AndroidManifest.xml:17:1-22:12
MERGED from [androidx.lifecycle:lifecycle-livedata:2.0.0] C:\Users\ADITI\.gradle\caches\transforms-2\files-2.1\fe26c49a6963281457fb9bd030258bfc\AndroidManifest.xml:17:1-22:12
MERGED from [androidx.lifecycle:lifecycle-livedata-core:2.0.0] C:\Users\ADITI\.gradle\caches\transforms-2\files-2.1\c41ee97fd98f7ac6553dc4cb1780d01d\AndroidManifest.xml:17:1-22:12
MERGED from [androidx.arch.core:core-runtime:2.0.0] C:\Users\ADITI\.gradle\caches\transforms-2\files-2.1\bacb011c68cb09a21dacd8bac233c6ad\AndroidManifest.xml:17:1-22:12
INJECTED from G:\RTR\Android\Robotic Arm\app\src\main\AndroidManifest.xml:2:1-24:12
INJECTED from G:\RTR\Android\Robotic Arm\app\src\main\AndroidManifest.xml:2:1-24:12
INJECTED from G:\RTR\Android\Robotic Arm\app\src\main\AndroidManifest.xml:2:1-24:12
	package
		ADDED from G:\RTR\Android\Robotic Arm\app\src\main\AndroidManifest.xml:3:5-37
		INJECTED from G:\RTR\Android\Robotic Arm\app\src\main\AndroidManifest.xml
		INJECTED from G:\RTR\Android\Robotic Arm\app\src\main\AndroidManifest.xml
	android:versionName
		INJECTED from G:\RTR\Android\Robotic Arm\app\src\main\AndroidManifest.xml
		ADDED from G:\RTR\Android\Robotic Arm\app\src\main\AndroidManifest.xml:2:1-24:12
		INJECTED from G:\RTR\Android\Robotic Arm\app\src\main\AndroidManifest.xml
	android:versionCode
		INJECTED from G:\RTR\Android\Robotic Arm\app\src\main\AndroidManifest.xml
		ADDED from G:\RTR\Android\Robotic Arm\app\src\main\AndroidManifest.xml:2:1-24:12
		INJECTED from G:\RTR\Android\Robotic Arm\app\src\main\AndroidManifest.xml
	xmlns:android
		ADDED from G:\RTR\Android\Robotic Arm\app\src\main\AndroidManifest.xml:2:11-69
uses-sdk
ADDED from G:\RTR\Android\Robotic Arm\app\src\main\AndroidManifest.xml:5:2-7:32
INJECTED from G:\RTR\Android\Robotic Arm\app\src\main\AndroidManifest.xml:5:2-7:32
INJECTED from G:\RTR\Android\Robotic Arm\app\src\main\AndroidManifest.xml:5:2-7:32
MERGED from [com.google.android.material:material:1.0.0] C:\Users\ADITI\.gradle\caches\transforms-2\files-2.1\2b30eab05df355fefcf7a54bbd3e93ed\AndroidManifest.xml:20:5-44
MERGED from [com.google.android.material:material:1.0.0] C:\Users\ADITI\.gradle\caches\transforms-2\files-2.1\2b30eab05df355fefcf7a54bbd3e93ed\AndroidManifest.xml:20:5-44
MERGED from [androidx.appcompat:appcompat:1.0.0] C:\Users\ADITI\.gradle\caches\transforms-2\files-2.1\0cf72bf7b2b7fe591912d65ff74badb3\AndroidManifest.xml:20:5-44
MERGED from [androidx.appcompat:appcompat:1.0.0] C:\Users\ADITI\.gradle\caches\transforms-2\files-2.1\0cf72bf7b2b7fe591912d65ff74badb3\AndroidManifest.xml:20:5-44
MERGED from [androidx.constraintlayout:constraintlayout:1.1.3] C:\Users\ADITI\.gradle\caches\transforms-2\files-2.1\2f303456c356c06345d8a1d59a763bbb\AndroidManifest.xml:5:5-7:41
MERGED from [androidx.constraintlayout:constraintlayout:1.1.3] C:\Users\ADITI\.gradle\caches\transforms-2\files-2.1\2f303456c356c06345d8a1d59a763bbb\AndroidManifest.xml:5:5-7:41
MERGED from [androidx.fragment:fragment:1.0.0] C:\Users\ADITI\.gradle\caches\transforms-2\files-2.1\078a6dec8f2bc556b736363f611ddeb9\AndroidManifest.xml:20:5-44
MERGED from [androidx.fragment:fragment:1.0.0] C:\Users\ADITI\.gradle\caches\transforms-2\files-2.1\078a6dec8f2bc556b736363f611ddeb9\AndroidManifest.xml:20:5-44
MERGED from [androidx.vectordrawable:vectordrawable-animated:1.0.0] C:\Users\ADITI\.gradle\caches\transforms-2\files-2.1\7a794546785dffbe98d9937b225d753f\AndroidManifest.xml:20:5-44
MERGED from [androidx.vectordrawable:vectordrawable-animated:1.0.0] C:\Users\ADITI\.gradle\caches\transforms-2\files-2.1\7a794546785dffbe98d9937b225d753f\AndroidManifest.xml:20:5-44
MERGED from [androidx.recyclerview:recyclerview:1.0.0] C:\Users\ADITI\.gradle\caches\transforms-2\files-2.1\9387e10675d5f2809e0b82c09a81c24f\AndroidManifest.xml:20:5-44
MERGED from [androidx.recyclerview:recyclerview:1.0.0] C:\Users\ADITI\.gradle\caches\transforms-2\files-2.1\9387e10675d5f2809e0b82c09a81c24f\AndroidManifest.xml:20:5-44
MERGED from [androidx.legacy:legacy-support-core-ui:1.0.0] C:\Users\ADITI\.gradle\caches\transforms-2\files-2.1\2f8538a14d6aa27c4373fddf3997e615\AndroidManifest.xml:20:5-44
MERGED from [androidx.legacy:legacy-support-core-ui:1.0.0] C:\Users\ADITI\.gradle\caches\transforms-2\files-2.1\2f8538a14d6aa27c4373fddf3997e615\AndroidManifest.xml:20:5-44
MERGED from [androidx.legacy:legacy-support-core-utils:1.0.0] C:\Users\ADITI\.gradle\caches\transforms-2\files-2.1\96e74ac039a01f220e298071020ecc49\AndroidManifest.xml:20:5-44
MERGED from [androidx.legacy:legacy-support-core-utils:1.0.0] C:\Users\ADITI\.gradle\caches\transforms-2\files-2.1\96e74ac039a01f220e298071020ecc49\AndroidManifest.xml:20:5-44
MERGED from [androidx.vectordrawable:vectordrawable:1.0.0] C:\Users\ADITI\.gradle\caches\transforms-2\files-2.1\dfd2a4f03aabe794c747c769f598c702\AndroidManifest.xml:20:5-44
MERGED from [androidx.vectordrawable:vectordrawable:1.0.0] C:\Users\ADITI\.gradle\caches\transforms-2\files-2.1\dfd2a4f03aabe794c747c769f598c702\AndroidManifest.xml:20:5-44
MERGED from [androidx.transition:transition:1.0.0] C:\Users\ADITI\.gradle\caches\transforms-2\files-2.1\c4ac52ae3dd0e922a5cae4fbbdfa6b76\AndroidManifest.xml:20:5-44
MERGED from [androidx.transition:transition:1.0.0] C:\Users\ADITI\.gradle\caches\transforms-2\files-2.1\c4ac52ae3dd0e922a5cae4fbbdfa6b76\AndroidManifest.xml:20:5-44
MERGED from [androidx.loader:loader:1.0.0] C:\Users\ADITI\.gradle\caches\transforms-2\files-2.1\7429688d6d4b96e486548a8b1563a14c\AndroidManifest.xml:20:5-44
MERGED from [androidx.loader:loader:1.0.0] C:\Users\ADITI\.gradle\caches\transforms-2\files-2.1\7429688d6d4b96e486548a8b1563a14c\AndroidManifest.xml:20:5-44
MERGED from [androidx.viewpager:viewpager:1.0.0] C:\Users\ADITI\.gradle\caches\transforms-2\files-2.1\412fc2651f251d1c519bed78043443fa\AndroidManifest.xml:20:5-44
MERGED from [androidx.viewpager:viewpager:1.0.0] C:\Users\ADITI\.gradle\caches\transforms-2\files-2.1\412fc2651f251d1c519bed78043443fa\AndroidManifest.xml:20:5-44
MERGED from [androidx.coordinatorlayout:coordinatorlayout:1.0.0] C:\Users\ADITI\.gradle\caches\transforms-2\files-2.1\8dd692df921b90425bfa53437812a610\AndroidManifest.xml:20:5-44
MERGED from [androidx.coordinatorlayout:coordinatorlayout:1.0.0] C:\Users\ADITI\.gradle\caches\transforms-2\files-2.1\8dd692df921b90425bfa53437812a610\AndroidManifest.xml:20:5-44
MERGED from [androidx.drawerlayout:drawerlayout:1.0.0] C:\Users\ADITI\.gradle\caches\transforms-2\files-2.1\0eab3c4e51e1cc69ad7b22abe5d70aaa\AndroidManifest.xml:20:5-44
MERGED from [androidx.drawerlayout:drawerlayout:1.0.0] C:\Users\ADITI\.gradle\caches\transforms-2\files-2.1\0eab3c4e51e1cc69ad7b22abe5d70aaa\AndroidManifest.xml:20:5-44
MERGED from [androidx.slidingpanelayout:slidingpanelayout:1.0.0] C:\Users\ADITI\.gradle\caches\transforms-2\files-2.1\94b5bd5a1daf1027b452feb960f49019\AndroidManifest.xml:20:5-44
MERGED from [androidx.slidingpanelayout:slidingpanelayout:1.0.0] C:\Users\ADITI\.gradle\caches\transforms-2\files-2.1\94b5bd5a1daf1027b452feb960f49019\AndroidManifest.xml:20:5-44
MERGED from [androidx.customview:customview:1.0.0] C:\Users\ADITI\.gradle\caches\transforms-2\files-2.1\c29bae176209060443a5512fd8f4808d\AndroidManifest.xml:20:5-44
MERGED from [androidx.customview:customview:1.0.0] C:\Users\ADITI\.gradle\caches\transforms-2\files-2.1\c29bae176209060443a5512fd8f4808d\AndroidManifest.xml:20:5-44
MERGED from [androidx.swiperefreshlayout:swiperefreshlayout:1.0.0] C:\Users\ADITI\.gradle\caches\transforms-2\files-2.1\7c42bd9569188cd31c093625346cfe66\AndroidManifest.xml:20:5-44
MERGED from [androidx.swiperefreshlayout:swiperefreshlayout:1.0.0] C:\Users\ADITI\.gradle\caches\transforms-2\files-2.1\7c42bd9569188cd31c093625346cfe66\AndroidManifest.xml:20:5-44
MERGED from [androidx.asynclayoutinflater:asynclayoutinflater:1.0.0] C:\Users\ADITI\.gradle\caches\transforms-2\files-2.1\02a9ff87b2b60f386c592ea50b040086\AndroidManifest.xml:20:5-44
MERGED from [androidx.asynclayoutinflater:asynclayoutinflater:1.0.0] C:\Users\ADITI\.gradle\caches\transforms-2\files-2.1\02a9ff87b2b60f386c592ea50b040086\AndroidManifest.xml:20:5-44
MERGED from [androidx.core:core:1.0.0] C:\Users\ADITI\.gradle\caches\transforms-2\files-2.1\8fd6db655c4c581b3bcbc37864b1e522\AndroidManifest.xml:20:5-44
MERGED from [androidx.core:core:1.0.0] C:\Users\ADITI\.gradle\caches\transforms-2\files-2.1\8fd6db655c4c581b3bcbc37864b1e522\AndroidManifest.xml:20:5-44
MERGED from [androidx.versionedparcelable:versionedparcelable:1.0.0] C:\Users\ADITI\.gradle\caches\transforms-2\files-2.1\7f65d74f1fada065272389904823dd25\AndroidManifest.xml:20:5-44
MERGED from [androidx.versionedparcelable:versionedparcelable:1.0.0] C:\Users\ADITI\.gradle\caches\transforms-2\files-2.1\7f65d74f1fada065272389904823dd25\AndroidManifest.xml:20:5-44
MERGED from [androidx.cursoradapter:cursoradapter:1.0.0] C:\Users\ADITI\.gradle\caches\transforms-2\files-2.1\1c81abf8101e9183b5f662ba5e96d487\AndroidManifest.xml:20:5-44
MERGED from [androidx.cursoradapter:cursoradapter:1.0.0] C:\Users\ADITI\.gradle\caches\transforms-2\files-2.1\1c81abf8101e9183b5f662ba5e96d487\AndroidManifest.xml:20:5-44
MERGED from [androidx.cardview:cardview:1.0.0] C:\Users\ADITI\.gradle\caches\transforms-2\files-2.1\0fdc2fab9e44843742cbe203c7b1bdfc\AndroidManifest.xml:20:5-44
MERGED from [androidx.cardview:cardview:1.0.0] C:\Users\ADITI\.gradle\caches\transforms-2\files-2.1\0fdc2fab9e44843742cbe203c7b1bdfc\AndroidManifest.xml:20:5-44
MERGED from [androidx.lifecycle:lifecycle-runtime:2.0.0] C:\Users\ADITI\.gradle\caches\transforms-2\files-2.1\8673577d0071d981466b7e7b53ce908b\AndroidManifest.xml:20:5-44
MERGED from [androidx.lifecycle:lifecycle-runtime:2.0.0] C:\Users\ADITI\.gradle\caches\transforms-2\files-2.1\8673577d0071d981466b7e7b53ce908b\AndroidManifest.xml:20:5-44
MERGED from [androidx.documentfile:documentfile:1.0.0] C:\Users\ADITI\.gradle\caches\transforms-2\files-2.1\16ea00e6eaf13f14cd7e49c57470a346\AndroidManifest.xml:20:5-44
MERGED from [androidx.documentfile:documentfile:1.0.0] C:\Users\ADITI\.gradle\caches\transforms-2\files-2.1\16ea00e6eaf13f14cd7e49c57470a346\AndroidManifest.xml:20:5-44
MERGED from [androidx.localbroadcastmanager:localbroadcastmanager:1.0.0] C:\Users\ADITI\.gradle\caches\transforms-2\files-2.1\0660aa194c2eb7d7f2147c4438c25d04\AndroidManifest.xml:20:5-44
MERGED from [androidx.localbroadcastmanager:localbroadcastmanager:1.0.0] C:\Users\ADITI\.gradle\caches\transforms-2\files-2.1\0660aa194c2eb7d7f2147c4438c25d04\AndroidManifest.xml:20:5-44
MERGED from [androidx.print:print:1.0.0] C:\Users\ADITI\.gradle\caches\transforms-2\files-2.1\c81ae9597b4e398933051c3b22837b48\AndroidManifest.xml:20:5-44
MERGED from [androidx.print:print:1.0.0] C:\Users\ADITI\.gradle\caches\transforms-2\files-2.1\c81ae9597b4e398933051c3b22837b48\AndroidManifest.xml:20:5-44
MERGED from [androidx.lifecycle:lifecycle-viewmodel:2.0.0] C:\Users\ADITI\.gradle\caches\transforms-2\files-2.1\a916e8f7b43726f2d78f09cb4af4c731\AndroidManifest.xml:20:5-44
MERGED from [androidx.lifecycle:lifecycle-viewmodel:2.0.0] C:\Users\ADITI\.gradle\caches\transforms-2\files-2.1\a916e8f7b43726f2d78f09cb4af4c731\AndroidManifest.xml:20:5-44
MERGED from [androidx.interpolator:interpolator:1.0.0] C:\Users\ADITI\.gradle\caches\transforms-2\files-2.1\0bacfdb71029e7e2296ead2162035297\AndroidManifest.xml:20:5-44
MERGED from [androidx.interpolator:interpolator:1.0.0] C:\Users\ADITI\.gradle\caches\transforms-2\files-2.1\0bacfdb71029e7e2296ead2162035297\AndroidManifest.xml:20:5-44
MERGED from [androidx.lifecycle:lifecycle-livedata:2.0.0] C:\Users\ADITI\.gradle\caches\transforms-2\files-2.1\fe26c49a6963281457fb9bd030258bfc\AndroidManifest.xml:20:5-44
MERGED from [androidx.lifecycle:lifecycle-livedata:2.0.0] C:\Users\ADITI\.gradle\caches\transforms-2\files-2.1\fe26c49a6963281457fb9bd030258bfc\AndroidManifest.xml:20:5-44
MERGED from [androidx.lifecycle:lifecycle-livedata-core:2.0.0] C:\Users\ADITI\.gradle\caches\transforms-2\files-2.1\c41ee97fd98f7ac6553dc4cb1780d01d\AndroidManifest.xml:20:5-44
MERGED from [androidx.lifecycle:lifecycle-livedata-core:2.0.0] C:\Users\ADITI\.gradle\caches\transforms-2\files-2.1\c41ee97fd98f7ac6553dc4cb1780d01d\AndroidManifest.xml:20:5-44
MERGED from [androidx.arch.core:core-runtime:2.0.0] C:\Users\ADITI\.gradle\caches\transforms-2\files-2.1\bacb011c68cb09a21dacd8bac233c6ad\AndroidManifest.xml:20:5-44
MERGED from [androidx.arch.core:core-runtime:2.0.0] C:\Users\ADITI\.gradle\caches\transforms-2\files-2.1\bacb011c68cb09a21dacd8bac233c6ad\AndroidManifest.xml:20:5-44
INJECTED from G:\RTR\Android\Robotic Arm\app\src\main\AndroidManifest.xml:5:2-7:32
INJECTED from G:\RTR\Android\Robotic Arm\app\src\main\AndroidManifest.xml:5:2-7:32
	android:targetSdkVersion
		ADDED from G:\RTR\Android\Robotic Arm\app\src\main\AndroidManifest.xml:6:4-33
		INJECTED from G:\RTR\Android\Robotic Arm\app\src\main\AndroidManifest.xml
		INJECTED from G:\RTR\Android\Robotic Arm\app\src\main\AndroidManifest.xml
	android:minSdkVersion
		ADDED from G:\RTR\Android\Robotic Arm\app\src\main\AndroidManifest.xml:7:4-30
		INJECTED from G:\RTR\Android\Robotic Arm\app\src\main\AndroidManifest.xml
		INJECTED from G:\RTR\Android\Robotic Arm\app\src\main\AndroidManifest.xml
application
ADDED from G:\RTR\Android\Robotic Arm\app\src\main\AndroidManifest.xml:9:5-22:19
MERGED from [com.google.android.material:material:1.0.0] C:\Users\ADITI\.gradle\caches\transforms-2\files-2.1\2b30eab05df355fefcf7a54bbd3e93ed\AndroidManifest.xml:22:5-20
MERGED from [com.google.android.material:material:1.0.0] C:\Users\ADITI\.gradle\caches\transforms-2\files-2.1\2b30eab05df355fefcf7a54bbd3e93ed\AndroidManifest.xml:22:5-20
MERGED from [androidx.constraintlayout:constraintlayout:1.1.3] C:\Users\ADITI\.gradle\caches\transforms-2\files-2.1\2f303456c356c06345d8a1d59a763bbb\AndroidManifest.xml:9:5-20
MERGED from [androidx.constraintlayout:constraintlayout:1.1.3] C:\Users\ADITI\.gradle\caches\transforms-2\files-2.1\2f303456c356c06345d8a1d59a763bbb\AndroidManifest.xml:9:5-20
MERGED from [androidx.core:core:1.0.0] C:\Users\ADITI\.gradle\caches\transforms-2\files-2.1\8fd6db655c4c581b3bcbc37864b1e522\AndroidManifest.xml:22:5-89
MERGED from [androidx.core:core:1.0.0] C:\Users\ADITI\.gradle\caches\transforms-2\files-2.1\8fd6db655c4c581b3bcbc37864b1e522\AndroidManifest.xml:22:5-89
MERGED from [androidx.versionedparcelable:versionedparcelable:1.0.0] C:\Users\ADITI\.gradle\caches\transforms-2\files-2.1\7f65d74f1fada065272389904823dd25\AndroidManifest.xml:22:5-23:19
MERGED from [androidx.versionedparcelable:versionedparcelable:1.0.0] C:\Users\ADITI\.gradle\caches\transforms-2\files-2.1\7f65d74f1fada065272389904823dd25\AndroidManifest.xml:22:5-23:19
	android:appComponentFactory
		ADDED from [androidx.core:core:1.0.0] C:\Users\ADITI\.gradle\caches\transforms-2\files-2.1\8fd6db655c4c581b3bcbc37864b1e522\AndroidManifest.xml:22:18-86
	android:label
		ADDED from G:\RTR\Android\Robotic Arm\app\src\main\AndroidManifest.xml:11:9-41
	android:roundIcon
		ADDED from G:\RTR\Android\Robotic Arm\app\src\main\AndroidManifest.xml:12:9-54
	android:icon
		ADDED from G:\RTR\Android\Robotic Arm\app\src\main\AndroidManifest.xml:10:9-43
	android:theme
		ADDED from G:\RTR\Android\Robotic Arm\app\src\main\AndroidManifest.xml:13:9-47
activity#com.example.roboticarm.MainActivity
ADDED from G:\RTR\Android\Robotic Arm\app\src\main\AndroidManifest.xml:14:9-21:20
	android:name
		ADDED from G:\RTR\Android\Robotic Arm\app\src\main\AndroidManifest.xml:15:13-41
intent-filter#action:name:android.intent.action.MAIN+category:name:android.intent.category.LAUNCHER
ADDED from G:\RTR\Android\Robotic Arm\app\src\main\AndroidManifest.xml:16:13-20:29
action#android.intent.action.MAIN
ADDED from G:\RTR\Android\Robotic Arm\app\src\main\AndroidManifest.xml:17:17-69
	android:name
		ADDED from G:\RTR\Android\Robotic Arm\app\src\main\AndroidManifest.xml:17:25-66
category#android.intent.category.LAUNCHER
ADDED from G:\RTR\Android\Robotic Arm\app\src\main\AndroidManifest.xml:19:17-77
	android:name
		ADDED from G:\RTR\Android\Robotic Arm\app\src\main\AndroidManifest.xml:19:27-74
