[BootStrap]
File1=1,,setup1.ex_,setup1.exe,$(WinPath),,,11/6/1999 17:49:28,1640960,5.0.0.3716,"","",""
File2=1,,VB5StKit.dl_,VB5StKit.dll,$(WinSysPath),,$(Shared),1/16/1997 0:00:00,29696,5.0.37.16,"","",""
File3=1,,MSVBVM50.dl_,MSVBVM50.dll,$(WinSysPathSysFile),$(DLLSelfRegister),,9/1/1998 15:44:30,1355776,5.2.82.44,"","",""
File4=1,,StdOle2.tl_,StdOle2.tlb,$(WinSysPathSysFile),$(TLBRegister),,1/15/1997 0:00:00,16896,2.20.4054.1,"","",""
File5=1,,OleAut32.dl_,OleAut32.dll,$(WinSysPathSysFile),$(DLLSelfRegister),,1/15/1997 0:00:00,491792,2.20.4054.1,"","",""
File6=1,,OlePro32.dl_,OlePro32.dll,$(WinSysPathSysFile),$(DLLSelfRegister),,1/15/1997 0:00:00,32528,5.0.4055.1,"","",""
File7=1,,AsycFilt.dl_,AsycFilt.dll,$(WinSysPathSysFile),,,1/15/1997 0:00:00,120592,2.20.4056.1,"","",""
File8=1,,Ctl3d32.dl_,Ctl3d32.dll,$(WinSysPathSysFile),,,8/21/1996 0:00:00,27136,2.31.0.0,"","",""
File9=1,,ComCat.dl_,ComCat.dll,$(WinSysPathSysFile),$(DLLSelfRegister),,10/31/1996 0:00:00,22288,4.71.1441.1,"","",""

[Files]
File1=1,,COMCTL32.OC_,COMCTL32.OCX,$(WinSysPath),$(DLLSelfRegister),$(Shared),6/24/1998 0:00:00,609584,6.0.80.22,"","",""
File2=1,,sellib40.DL_,sellib40.DLL,$(AppPath),,,9/21/1999 5:12:10,132096,,"","",""
File3=1,,APS4032.DL_,APS4032.DLL,$(WinSysPath),,,10/24/1999 11:28:02,75776,,"","",""
File4=1,,COMDLG32.OC_,COMDLG32.OCX,$(WinSysPath),$(DLLSelfRegister),$(Shared),6/24/1998 0:00:00,140096,6.0.81.69,"","",""
File5=1,,ISMDVSHB.EK_,ISMDVSHB.EKF,$(AppPath),,,5/10/1999 18:34:54,1632,,"","",""
File6=1,,AKRDVANG.EK_,AKRDVANG.EKF,$(AppPath),,,6/9/1999 13:10:44,1632,,"","",""
File7=1,,AKRDVAPS.EK_,AKRDVAPS.EKF,$(AppPath),,,6/9/1999 13:10:44,1632,,"","",""
File8=1,,AKRDVCRM.EK_,AKRDVCRM.EKF,$(AppPath),,,6/9/1999 13:10:44,1632,,"","",""
File9=1,,AKRDVCRT.EK_,AKRDVCRT.EKF,$(AppPath),,,6/9/1999 13:10:44,1632,,"","",""
File10=1,,AKRDVDEV.EK_,AKRDVDEV.EKF,$(AppPath),,,6/9/1999 13:10:44,1632,,"","",""
File11=1,,AKRDVDOE.EK_,AKRDVDOE.EKF,$(AppPath),,,6/9/1999 13:10:44,1632,,"","",""
File12=1,,AKRDVGOD.EK_,AKRDVGOD.EKF,$(AppPath),,,6/9/1999 13:10:44,1632,,"","",""
File13=1,,AKRDVITD.EK_,AKRDVITD.EKF,$(AppPath),,,6/9/1999 13:10:44,1632,,"","",""
File14=1,,AKRDVITP.EK_,AKRDVITP.EKF,$(AppPath),,,6/9/1999 13:10:44,1632,,"","",""
File15=1,,AKRDVLN1.EK_,AKRDVLN1.EKF,$(AppPath),,,6/9/1999 13:10:44,1632,,"","",""
File16=1,,AKRDVLN2.EK_,AKRDVLN2.EKF,$(AppPath),,,6/9/1999 13:10:44,1632,,"","",""
File17=1,,AKRDVMOD.EK_,AKRDVMOD.EKF,$(AppPath),,,6/9/1999 13:10:44,1632,,"","",""
File18=1,,AKRDVMON.EK_,AKRDVMON.EKF,$(AppPath),,,6/9/1999 13:10:44,1632,,"","",""
File19=1,,AKRDVNEP.EK_,AKRDVNEP.EKF,$(AppPath),,,6/9/1999 13:10:44,1632,,"","",""
File20=1,,AKRDVPRK.EK_,AKRDVPRK.EKF,$(AppPath),,,6/9/1999 13:10:44,1632,,"","",""
File21=1,,AKRDVREM.EK_,AKRDVREM.EKF,$(AppPath),,,6/9/1999 13:10:44,1632,,"","",""
File22=1,,AKRDVSCR.EK_,AKRDVSCR.EKF,$(AppPath),,,6/9/1999 13:10:44,1632,,"","",""
File23=1,,AKRDVSHB.EK_,AKRDVSHB.EKF,$(AppPath),,,6/9/1999 13:10:44,1632,,"","",""
File24=1,,APSDVAKS.EK_,APSDVAKS.EKF,$(AppPath),,,10/6/1997 16:57:36,1632,,"","",""
File25=1,,APSDVANG.EK_,APSDVANG.EKF,$(AppPath),,,3/8/1997 16:12:32,1632,,"","",""
File26=1,,APSDVAPS.EK_,APSDVAPS.EKF,$(AppPath),,,7/9/1996 0:00:00,1632,,"","",""
File27=1,,APSDVCRM.EK_,APSDVCRM.EKF,$(AppPath),,,10/6/1997 16:57:36,1632,,"","",""
File28=1,,APSDVCRT.EK_,APSDVCRT.EKF,$(AppPath),,,10/6/1997 16:57:36,1632,,"","",""
File29=1,,APSDVDEV.EK_,APSDVDEV.EKF,$(AppPath),,,10/6/1997 16:57:36,1632,,"","",""
File30=1,,APSDVDOE.EK_,APSDVDOE.EKF,$(AppPath),,,10/6/1997 16:57:38,1632,,"","",""
File31=1,,APSDVGOD.EK_,APSDVGOD.EKF,$(AppPath),,,10/6/1997 16:57:38,1632,,"","",""
File32=1,,APSDVITD.EK_,APSDVITD.EKF,$(AppPath),,,10/6/1997 16:57:38,1632,,"","",""
File33=1,,APSDVITP.EK_,APSDVITP.EKF,$(AppPath),,,10/6/1997 16:57:38,1632,,"","",""
File34=1,,APSDVLN1.EK_,APSDVLN1.EKF,$(AppPath),,,10/6/1997 16:57:38,1632,,"","",""
File35=1,,APSDVLN2.EK_,APSDVLN2.EKF,$(AppPath),,,10/6/1997 16:57:38,1632,,"","",""
File36=1,,APSDVMOD.EK_,APSDVMOD.EKF,$(AppPath),,,10/6/1997 16:57:38,1632,,"","",""
File37=1,,APSDVMON.EK_,APSDVMON.EKF,$(AppPath),,,3/20/1998 11:47:26,1632,,"","",""
File38=1,,APSDVNEP.EK_,APSDVNEP.EKF,$(AppPath),,,10/6/1997 16:57:38,1632,,"","",""
File39=1,,APSDVPRK.EK_,APSDVPRK.EKF,$(AppPath),,,10/6/1997 16:57:38,1632,,"","",""
File40=1,,APSDVREM.EK_,APSDVREM.EKF,$(AppPath),,,10/15/1997 12:02:12,1632,,"","",""
File41=1,,APSDVROM.EK_,APSDVROM.EKF,$(AppPath),,,10/6/1997 16:57:38,1632,,"","",""
File42=1,,APSDVSCR.EK_,APSDVSCR.EKF,$(AppPath),,,10/6/1997 16:57:38,1632,,"","",""
File43=1,,APSDVSHB.EK_,APSDVSHB.EKF,$(AppPath),,,10/6/1997 16:57:38,1632,,"","",""
File44=1,,APSGJANG.EK_,APSGJANG.EKF,$(AppPath),,,11/11/1997 16:58:00,1632,,"","",""
File45=1,,APSGJAPS.EK_,APSGJAPS.EKF,$(AppPath),,,11/11/1997 16:58:00,1632,,"","",""
File46=1,,APSGJDOE.EK_,APSGJDOE.EKF,$(AppPath),,,11/11/1997 16:57:58,1632,,"","",""
File47=1,,APSGJGOD.EK_,APSGJGOD.EKF,$(AppPath),,,11/11/1997 16:57:58,1632,,"","",""
File48=1,,APSGJMOD.EK_,APSGJMOD.EKF,$(AppPath),,,11/11/1997 16:58:00,1632,,"","",""
File49=1,,APSGJREM.EK_,APSGJREM.EKF,$(AppPath),,,11/11/1997 16:58:00,1632,,"","",""
File50=1,,APSVDAPS.EK_,APSVDAPS.EKF,$(AppPath),,,12/9/1996 22:31:22,1632,,"","",""
File51=1,,APSVDREM.EK_,APSVDREM.EKF,$(AppPath),,,9/30/1997 14:45:06,1632,,"","",""
File52=1,,CORDVAKS.EK_,CORDVAKS.EKF,$(AppPath),,,10/30/1998 13:51:28,1632,,"","",""
File53=1,,CORDVANG.EK_,CORDVANG.EKF,$(AppPath),,,10/30/1998 13:43:02,1632,,"","",""
File54=1,,CORDVAPS.EK_,CORDVAPS.EKF,$(AppPath),,,10/30/1998 13:14:40,1632,,"","",""
File55=1,,CORDVDOE.EK_,CORDVDOE.EKF,$(AppPath),,,10/30/1998 13:45:48,1632,,"","",""
File56=1,,CORDVELE.EK_,CORDVELE.EKF,$(AppPath),,,10/30/1998 13:44:24,1632,,"","",""
File57=1,,CORDVGOD.EK_,CORDVGOD.EKF,$(AppPath),,,10/30/1998 13:47:42,1632,,"","",""
File58=1,,CORDVITD.EK_,CORDVITD.EKF,$(AppPath),,,10/30/1998 13:47:22,1632,,"","",""
File59=1,,CORDVITP.EK_,CORDVITP.EKF,$(AppPath),,,10/30/1998 13:46:20,1632,,"","",""
File60=1,,CORDVMOD.EK_,CORDVMOD.EKF,$(AppPath),,,10/30/1998 13:43:22,1632,,"","",""
File61=1,,CORDVPRK.EK_,CORDVPRK.EKF,$(AppPath),,,10/30/1998 13:43:48,1632,,"","",""
File62=1,,CORDVREM.EK_,CORDVREM.EKF,$(AppPath),,,11/10/1997 9:52:44,1632,,"","",""
File63=1,,CORDVSHB.EK_,CORDVSHB.EKF,$(AppPath),,,10/30/1998 12:59:16,1632,,"","",""
File64=1,,CORGJANG.EK_,CORGJANG.EKF,$(AppPath),,,11/10/1997 21:15:20,1632,,"","",""
File65=1,,CORGJAPS.EK_,CORGJAPS.EKF,$(AppPath),,,11/10/1997 21:15:20,1632,,"","",""
File66=1,,CORGJDOE.EK_,CORGJDOE.EKF,$(AppPath),,,11/10/1997 21:15:20,1632,,"","",""
File67=1,,CORGJGOD.EK_,CORGJGOD.EKF,$(AppPath),,,12/6/1997 12:51:38,1632,,"","",""
File68=1,,CORGJMOD.EK_,CORGJMOD.EKF,$(AppPath),,,11/12/1997 11:59:22,1632,,"","",""
File69=1,,CORGJREM.EK_,CORGJREM.EKF,$(AppPath),,,11/10/1997 21:15:20,1632,,"","",""
File70=1,,INDDVAKS.EK_,INDDVAKS.EKF,$(AppPath),,,5/10/1999 18:29:20,1632,,"","",""
File71=1,,INDDVANG.EK_,INDDVANG.EKF,$(AppPath),,,5/10/1999 18:29:20,1632,,"","",""
File72=1,,INDDVAPS.EK_,INDDVAPS.EKF,$(AppPath),,,5/10/1999 18:29:20,1632,,"","",""
File73=1,,INDDVCRM.EK_,INDDVCRM.EKF,$(AppPath),,,5/10/1999 18:29:20,1632,,"","",""
File74=1,,INDDVCRT.EK_,INDDVCRT.EKF,$(AppPath),,,5/10/1999 18:29:20,1632,,"","",""
File75=1,,INDDVDEV.EK_,INDDVDEV.EKF,$(AppPath),,,5/10/1999 18:29:20,1632,,"","",""
File76=1,,INDDVDOE.EK_,INDDVDOE.EKF,$(AppPath),,,5/10/1999 18:29:20,1632,,"","",""
File77=1,,INDDVGOD.EK_,INDDVGOD.EKF,$(AppPath),,,5/10/1999 18:29:20,1632,,"","",""
File78=1,,INDDVITD.EK_,INDDVITD.EKF,$(AppPath),,,5/10/1999 18:29:20,1632,,"","",""
File79=1,,INDDVITP.EK_,INDDVITP.EKF,$(AppPath),,,5/10/1999 18:29:20,1632,,"","",""
File80=1,,INDDVLN1.EK_,INDDVLN1.EKF,$(AppPath),,,5/10/1999 18:29:20,1632,,"","",""
File81=1,,INDDVLN2.EK_,INDDVLN2.EKF,$(AppPath),,,5/10/1999 18:29:20,1632,,"","",""
File82=1,,INDDVMOD.EK_,INDDVMOD.EKF,$(AppPath),,,5/10/1999 18:29:20,1632,,"","",""
File83=1,,INDDVMON.EK_,INDDVMON.EKF,$(AppPath),,,5/10/1999 18:29:20,1632,,"","",""
File84=1,,INDDVNEP.EK_,INDDVNEP.EKF,$(AppPath),,,5/10/1999 18:29:20,1632,,"","",""
File85=1,,INDDVPRK.EK_,INDDVPRK.EKF,$(AppPath),,,5/10/1999 18:29:20,1632,,"","",""
File86=1,,INDDVREM.EK_,INDDVREM.EKF,$(AppPath),,,5/10/1999 18:29:20,1632,,"","",""
File87=1,,INDDVSCR.EK_,INDDVSCR.EKF,$(AppPath),,,5/10/1999 18:29:20,1632,,"","",""
File88=1,,INDDVSHB.EK_,INDDVSHB.EKF,$(AppPath),,,5/10/1999 18:29:20,1632,,"","",""
File89=1,,ISMDVAKS.EK_,ISMDVAKS.EKF,$(AppPath),,,5/10/1999 18:34:54,1632,,"","",""
File90=1,,ISMDVANG.EK_,ISMDVANG.EKF,$(AppPath),,,5/10/1999 18:34:54,1632,,"","",""
File91=1,,ISMDVAPS.EK_,ISMDVAPS.EKF,$(AppPath),,,5/10/1999 18:34:54,1632,,"","",""
File92=1,,ISMDVCRM.EK_,ISMDVCRM.EKF,$(AppPath),,,5/10/1999 18:34:54,1632,,"","",""
File93=1,,ISMDVCRT.EK_,ISMDVCRT.EKF,$(AppPath),,,5/10/1999 18:34:54,1632,,"","",""
File94=1,,ISMDVDEV.EK_,ISMDVDEV.EKF,$(AppPath),,,5/10/1999 18:34:54,1632,,"","",""
File95=1,,ISMDVDOE.EK_,ISMDVDOE.EKF,$(AppPath),,,5/10/1999 18:34:54,1632,,"","",""
File96=1,,ISMDVGOD.EK_,ISMDVGOD.EKF,$(AppPath),,,5/10/1999 18:34:54,1632,,"","",""
File97=1,,ISMDVITD.EK_,ISMDVITD.EKF,$(AppPath),,,5/10/1999 18:34:54,1632,,"","",""
File98=1,,ISMDVITP.EK_,ISMDVITP.EKF,$(AppPath),,,5/10/1999 18:34:54,1632,,"","",""
File99=1,,ISMDVLN1.EK_,ISMDVLN1.EKF,$(AppPath),,,5/10/1999 18:34:54,1632,,"","",""
File100=1,,ISMDVLN2.EK_,ISMDVLN2.EKF,$(AppPath),,,5/10/1999 18:34:54,1632,,"","",""
File101=1,,ISMDVMOD.EK_,ISMDVMOD.EKF,$(AppPath),,,5/10/1999 18:34:54,1632,,"","",""
File102=1,,ISMDVMON.EK_,ISMDVMON.EKF,$(AppPath),,,5/10/1999 18:34:54,1632,,"","",""
File103=1,,ISMDVNEP.EK_,ISMDVNEP.EKF,$(AppPath),,,5/10/1999 18:34:54,1632,,"","",""
File104=1,,ISMDVPRK.EK_,ISMDVPRK.EKF,$(AppPath),,,5/10/1999 18:34:54,1632,,"","",""
File105=1,,ISMDVREM.EK_,ISMDVREM.EKF,$(AppPath),,,5/10/1999 18:34:54,1632,,"","",""
File106=1,,ISMDVSCR.EK_,ISMDVSCR.EKF,$(AppPath),,,5/10/1999 18:34:54,1632,,"","",""
File107=1,,AKRDVAKS.EK_,AKRDVAKS.EKF,$(AppPath),,,6/9/1999 13:10:44,1632,,"","",""
File108=1,,KRTDVSHB.EK_,KRTDVSHB.EKF,$(AppPath),,,5/10/1999 19:28:20,1632,,"","",""
File109=1,,ITRDVANG.EK_,ITRDVANG.EKF,$(AppPath),,,5/10/1999 18:46:24,1632,,"","",""
File110=1,,ITRDVAPS.EK_,ITRDVAPS.EKF,$(AppPath),,,5/10/1999 18:46:24,1632,,"","",""
File111=1,,ITRDVCRM.EK_,ITRDVCRM.EKF,$(AppPath),,,5/10/1999 18:46:24,1632,,"","",""
File112=1,,ITRDVCRT.EK_,ITRDVCRT.EKF,$(AppPath),,,5/10/1999 18:46:24,1632,,"","",""
File113=1,,ITRDVDEV.EK_,ITRDVDEV.EKF,$(AppPath),,,5/10/1999 18:46:24,1632,,"","",""
File114=1,,ITRDVDOE.EK_,ITRDVDOE.EKF,$(AppPath),,,5/10/1999 18:46:24,1632,,"","",""
File115=1,,ITRDVGOD.EK_,ITRDVGOD.EKF,$(AppPath),,,5/10/1999 18:46:24,1632,,"","",""
File116=1,,ITRDVITD.EK_,ITRDVITD.EKF,$(AppPath),,,5/10/1999 18:46:24,1632,,"","",""
File117=1,,ITRDVITP.EK_,ITRDVITP.EKF,$(AppPath),,,5/10/1999 18:46:24,1632,,"","",""
File118=1,,ITRDVLN1.EK_,ITRDVLN1.EKF,$(AppPath),,,5/10/1999 18:46:24,1632,,"","",""
File119=1,,ITRDVLN2.EK_,ITRDVLN2.EKF,$(AppPath),,,5/10/1999 18:46:24,1632,,"","",""
File120=1,,ITRDVMOD.EK_,ITRDVMOD.EKF,$(AppPath),,,5/10/1999 18:46:24,1632,,"","",""
File121=1,,ITRDVMON.EK_,ITRDVMON.EKF,$(AppPath),,,5/10/1999 18:46:24,1632,,"","",""
File122=1,,ITRDVNEP.EK_,ITRDVNEP.EKF,$(AppPath),,,5/10/1999 18:46:24,1632,,"","",""
File123=1,,ITRDVPRK.EK_,ITRDVPRK.EKF,$(AppPath),,,5/10/1999 18:46:24,1632,,"","",""
File124=1,,ITRDVREM.EK_,ITRDVREM.EKF,$(AppPath),,,5/10/1999 18:46:24,1632,,"","",""
File125=1,,ITRDVSCR.EK_,ITRDVSCR.EKF,$(AppPath),,,5/10/1999 18:46:24,1632,,"","",""
File126=1,,ITRDVSHB.EK_,ITRDVSHB.EKF,$(AppPath),,,5/10/1999 18:46:24,1632,,"","",""
File127=1,,KRTDVAKS.EK_,KRTDVAKS.EKF,$(AppPath),,,5/10/1999 19:28:20,1632,,"","",""
File128=1,,KRTDVANG.EK_,KRTDVANG.EKF,$(AppPath),,,5/10/1999 19:28:20,1632,,"","",""
File129=1,,KRTDVAPS.EK_,KRTDVAPS.EKF,$(AppPath),,,5/10/1999 19:28:20,1632,,"","",""
File130=1,,KRTDVCRM.EK_,KRTDVCRM.EKF,$(AppPath),,,5/10/1999 19:28:20,1632,,"","",""
File131=1,,KRTDVCRT.EK_,KRTDVCRT.EKF,$(AppPath),,,5/10/1999 19:28:20,1632,,"","",""
File132=1,,KRTDVDEV.EK_,KRTDVDEV.EKF,$(AppPath),,,5/10/1999 19:28:20,1632,,"","",""
File133=1,,KRTDVDOE.EK_,KRTDVDOE.EKF,$(AppPath),,,5/10/1999 19:28:20,1632,,"","",""
File134=1,,KRTDVGOD.EK_,KRTDVGOD.EKF,$(AppPath),,,5/10/1999 19:28:20,1632,,"","",""
File135=1,,KRTDVITD.EK_,KRTDVITD.EKF,$(AppPath),,,5/10/1999 19:28:20,1632,,"","",""
File136=1,,KRTDVITP.EK_,KRTDVITP.EKF,$(AppPath),,,5/10/1999 19:28:20,1632,,"","",""
File137=1,,KRTDVLN1.EK_,KRTDVLN1.EKF,$(AppPath),,,5/10/1999 19:28:20,1632,,"","",""
File138=1,,KRTDVLN2.EK_,KRTDVLN2.EKF,$(AppPath),,,5/10/1999 19:28:20,1632,,"","",""
File139=1,,KRTDVMOD.EK_,KRTDVMOD.EKF,$(AppPath),,,5/10/1999 19:28:20,1632,,"","",""
File140=1,,KRTDVMON.EK_,KRTDVMON.EKF,$(AppPath),,,5/10/1999 19:28:20,1632,,"","",""
File141=1,,KRTDVNEP.EK_,KRTDVNEP.EKF,$(AppPath),,,5/10/1999 19:28:20,1632,,"","",""
File142=1,,KRTDVPRK.EK_,KRTDVPRK.EKF,$(AppPath),,,5/10/1999 19:28:20,1632,,"","",""
File143=1,,KRTDVREM.EK_,KRTDVREM.EKF,$(AppPath),,,5/10/1999 19:28:20,1632,,"","",""
File144=1,,KRTDVSCR.EK_,KRTDVSCR.EKF,$(AppPath),,,5/10/1999 19:28:20,1632,,"","",""
File145=1,,ITRDVAKS.EK_,ITRDVAKS.EKF,$(AppPath),,,5/10/1999 18:46:24,1632,,"","",""
File146=1,,MEGCON40.HL_,MEGCON40.HLP,$(AppPath),,,10/13/1999 16:26:12,149809,,"","",""
File147=1,,FCW35.HL_,FCW35.HLP,$(AppPath),,,8/1/1996 0:00:00,13882,,"","",""
File148=1,,EXAMPLES.HL_,EXAMPLES.HLP,$(AppPath),,,6/16/1999 17:58:10,29637,,"","",""
File149=1,,KEYL.HL_,KEYL.HLP,$(AppPath),,,6/17/1999 12:04:50,8569,,"","",""
File150=1,,DESKTOP.HL_,DESKTOP.HLP,$(AppPath),,,10/13/1999 16:21:36,44787,,"","",""
File151=1,,BWCC.DL_,BWCC.DLL,$(AppPath),,,11/17/1994 0:00:00,164928,2.3.5.1,"","",""
File152=1,,BC450RTL.DL_,BC450RTL.DLL,$(AppPath),,,11/17/1994 4:50:00,219648,4.2.0.0,"","",""
File153=1,,BC40RTL.DL_,BC40RTL.DLL,$(AppPath),,,12/2/1993 4:00:00,212480,4.0.0.0,"","",""
File154=1,,CONVERT2.EX_,CONVERT2.EXE,$(AppPath),,,6/22/1999 12:26:00,500288,1.0.0.0,"","",""
File155=1,,CCMOVE.EX_,CCMOVE.EXE,$(AppPath),,,3/6/1997 13:56:54,56820,,"","",""
File156=1,,CONVERT1.EX_,CONVERT1.EXE,$(AppPath),,,10/14/1999 16:48:48,499696,1.0.0.0,"","",""
File157=1,,CCLOOK.EX_,CCLOOK.EXE,$(AppPath),,,2/11/1997 15:42:36,66302,,"","",""
File158=1,,CORGJ.TT_,CORGJ.TTF,$(AppPath),,,8/11/1999 16:42:56,58072,,"","",""
File159=1,,APSDV.TT_,APSDV.TTF,$(AppPath),,,4/18/1999 20:57:30,54372,,"","",""
File160=1,,APSGJ.TT_,APSGJ.TTF,$(AppPath),,,4/18/1999 21:02:46,64584,,"","",""
File161=1,,APSRM.TT_,APSRM.TTF,$(AppPath),,,4/18/1999 21:04:38,56460,,"","",""
File162=1,,APSVD.TT_,APSVD.TTF,$(AppPath),,,4/18/1999 21:00:34,58716,,"","",""
File163=1,,CORDV.TT_,CORDV.TTF,$(AppPath),,,8/11/1999 16:40:20,54640,,"","",""
File164=1,,AKRDV.TT_,AKRDV.TTF,$(AppPath),,,6/9/1999 11:01:50,55756,,"","",""
File165=1,,RNGDVSHB.EK_,RNGDVSHB.EKF,$(AppPath),,,5/28/1999 10:46:02,1632,,"","",""
File166=1,,MDNDVANG.EK_,MDNDVANG.EKF,$(AppPath),,,5/10/1999 19:23:44,1632,,"","",""
File167=1,,MDNDVAPS.EK_,MDNDVAPS.EKF,$(AppPath),,,5/10/1999 19:23:44,1632,,"","",""
File168=1,,MDNDVCRM.EK_,MDNDVCRM.EKF,$(AppPath),,,5/10/1999 19:23:44,1632,,"","",""
File169=1,,MDNDVCRT.EK_,MDNDVCRT.EKF,$(AppPath),,,5/10/1999 19:23:44,1632,,"","",""
File170=1,,MDNDVDEV.EK_,MDNDVDEV.EKF,$(AppPath),,,5/10/1999 19:23:44,1632,,"","",""
File171=1,,MDNDVDOE.EK_,MDNDVDOE.EKF,$(AppPath),,,5/10/1999 19:23:44,1632,,"","",""
File172=1,,MDNDVGOD.EK_,MDNDVGOD.EKF,$(AppPath),,,5/10/1999 19:23:44,1632,,"","",""
File173=1,,MDNDVITD.EK_,MDNDVITD.EKF,$(AppPath),,,5/10/1999 19:23:44,1632,,"","",""
File174=1,,MDNDVITP.EK_,MDNDVITP.EKF,$(AppPath),,,5/10/1999 19:23:44,1632,,"","",""
File175=1,,MDNDVLN1.EK_,MDNDVLN1.EKF,$(AppPath),,,5/10/1999 19:23:44,1632,,"","",""
File176=1,,MDNDVLN2.EK_,MDNDVLN2.EKF,$(AppPath),,,5/10/1999 19:23:44,1632,,"","",""
File177=1,,MDNDVMOD.EK_,MDNDVMOD.EKF,$(AppPath),,,5/10/1999 19:23:44,1632,,"","",""
File178=1,,MDNDVMON.EK_,MDNDVMON.EKF,$(AppPath),,,5/10/1999 19:23:44,1632,,"","",""
File179=1,,MDNDVNEP.EK_,MDNDVNEP.EKF,$(AppPath),,,5/10/1999 19:23:44,1632,,"","",""
File180=1,,MDNDVPRK.EK_,MDNDVPRK.EKF,$(AppPath),,,5/10/1999 19:23:44,1632,,"","",""
File181=1,,MDNDVREM.EK_,MDNDVREM.EKF,$(AppPath),,,5/10/1999 19:23:44,1632,,"","",""
File182=1,,MDNDVSCR.EK_,MDNDVSCR.EKF,$(AppPath),,,5/10/1999 19:23:44,1632,,"","",""
File183=1,,MDNDVSHB.EK_,MDNDVSHB.EKF,$(AppPath),,,5/10/1999 19:23:44,1632,,"","",""
File184=1,,PRKDVAKS.EK_,PRKDVAKS.EKF,$(AppPath),,,5/10/1999 19:26:04,1632,,"","",""
File185=1,,PRKDVANG.EK_,PRKDVANG.EKF,$(AppPath),,,5/10/1999 19:26:04,1632,,"","",""
File186=1,,PRKDVAPS.EK_,PRKDVAPS.EKF,$(AppPath),,,5/10/1999 19:26:04,1632,,"","",""
File187=1,,PRKDVCRM.EK_,PRKDVCRM.EKF,$(AppPath),,,5/10/1999 19:26:04,1632,,"","",""
File188=1,,PRKDVCRT.EK_,PRKDVCRT.EKF,$(AppPath),,,5/10/1999 19:26:04,1632,,"","",""
File189=1,,PRKDVDEV.EK_,PRKDVDEV.EKF,$(AppPath),,,5/10/1999 19:26:04,1632,,"","",""
File190=1,,PRKDVDOE.EK_,PRKDVDOE.EKF,$(AppPath),,,5/10/1999 19:26:04,1632,,"","",""
File191=1,,PRKDVGOD.EK_,PRKDVGOD.EKF,$(AppPath),,,5/10/1999 19:26:04,1632,,"","",""
File192=1,,PRKDVITD.EK_,PRKDVITD.EKF,$(AppPath),,,5/10/1999 19:26:04,1632,,"","",""
File193=1,,PRKDVITP.EK_,PRKDVITP.EKF,$(AppPath),,,5/10/1999 19:26:04,1632,,"","",""
File194=1,,PRKDVLN1.EK_,PRKDVLN1.EKF,$(AppPath),,,5/10/1999 19:26:04,1632,,"","",""
File195=1,,PRKDVLN2.EK_,PRKDVLN2.EKF,$(AppPath),,,5/10/1999 19:26:04,1632,,"","",""
File196=1,,PRKDVMOD.EK_,PRKDVMOD.EKF,$(AppPath),,,5/10/1999 19:26:04,1632,,"","",""
File197=1,,PRKDVMON.EK_,PRKDVMON.EKF,$(AppPath),,,5/10/1999 19:26:04,1632,,"","",""
File198=1,,PRKDVNEP.EK_,PRKDVNEP.EKF,$(AppPath),,,5/10/1999 19:26:04,1632,,"","",""
File199=1,,PRKDVPRK.EK_,PRKDVPRK.EKF,$(AppPath),,,5/10/1999 19:26:04,1632,,"","",""
File200=1,,PRKDVREM.EK_,PRKDVREM.EKF,$(AppPath),,,5/10/1999 19:26:04,1632,,"","",""
File201=1,,PRKDVSCR.EK_,PRKDVSCR.EKF,$(AppPath),,,5/10/1999 19:26:04,1632,,"","",""
File202=1,,PRKDVSHB.EK_,PRKDVSHB.EKF,$(AppPath),,,5/10/1999 19:26:04,1632,,"","",""
File203=1,,RNGDVAKS.EK_,RNGDVAKS.EKF,$(AppPath),,,5/28/1999 10:46:00,1632,,"","",""
File204=1,,RNGDVANG.EK_,RNGDVANG.EKF,$(AppPath),,,5/28/1999 10:46:00,1632,,"","",""
File205=1,,RNGDVAPS.EK_,RNGDVAPS.EKF,$(AppPath),,,5/28/1999 10:46:02,1632,,"","",""
File206=1,,RNGDVCRM.EK_,RNGDVCRM.EKF,$(AppPath),,,5/28/1999 10:46:02,1632,,"","",""
File207=1,,RNGDVCRT.EK_,RNGDVCRT.EKF,$(AppPath),,,5/28/1999 10:46:02,1632,,"","",""
File208=1,,RNGDVDEV.EK_,RNGDVDEV.EKF,$(AppPath),,,5/28/1999 10:46:02,1632,,"","",""
File209=1,,RNGDVDOE.EK_,RNGDVDOE.EKF,$(AppPath),,,5/28/1999 10:46:02,1632,,"","",""
File210=1,,RNGDVGOD.EK_,RNGDVGOD.EKF,$(AppPath),,,5/28/1999 10:46:02,1632,,"","",""
File211=1,,RNGDVITD.EK_,RNGDVITD.EKF,$(AppPath),,,5/28/1999 10:46:02,1632,,"","",""
File212=1,,RNGDVITP.EK_,RNGDVITP.EKF,$(AppPath),,,5/28/1999 10:46:02,1632,,"","",""
File213=1,,RNGDVLN1.EK_,RNGDVLN1.EKF,$(AppPath),,,5/28/1999 10:46:02,1632,,"","",""
File214=1,,RNGDVLN2.EK_,RNGDVLN2.EKF,$(AppPath),,,5/28/1999 10:46:02,1632,,"","",""
File215=1,,RNGDVMOD.EK_,RNGDVMOD.EKF,$(AppPath),,,5/28/1999 10:46:02,1632,,"","",""
File216=1,,RNGDVMON.EK_,RNGDVMON.EKF,$(AppPath),,,5/28/1999 10:46:02,1632,,"","",""
File217=1,,RNGDVNEP.EK_,RNGDVNEP.EKF,$(AppPath),,,5/28/1999 10:46:02,1632,,"","",""
File218=1,,RNGDVPRK.EK_,RNGDVPRK.EKF,$(AppPath),,,5/28/1999 10:46:02,1632,,"","",""
File219=1,,RNGDVREM.EK_,RNGDVREM.EKF,$(AppPath),,,5/28/1999 10:46:02,1632,,"","",""
File220=1,,RNGDVSCR.EK_,RNGDVSCR.EKF,$(AppPath),,,5/28/1999 10:46:02,1632,,"","",""
File221=1,,MDNDVAKS.EK_,MDNDVAKS.EKF,$(AppPath),,,5/10/1999 19:23:44,1632,,"","",""
File222=1,,THREED16.OC_,THREED16.OCX,$(WinSysPath),,,7/26/1995 0:00:00,177824,1.0.41.0,"","",""
File223=1,,KEYL.EX_,KEYL.EXE,$(AppPath),,,9/30/1999 15:11:26,181629,,"","",""
File224=1,,FCW40.EX_,FCW40.EXE,$(AppPath),,,5/26/1999 10:08:26,111997,,"","",""
File225=1,,SUBDANKAN.HL_,SUBDANKAN.HLP,$(AppPath),,,5/17/1999 14:39:06,34960,1.0.0.0,"","",""
File226=1,,WRICNV.DL_,WRICNV.DLL,$(AppPath),,,3/13/1999 12:12:36,28877,,"","",""
File227=1,,AKRDV.dl_,AKRDV.dll,$(AppPath),,,11/4/1999 15:51:20,40960,,"","",""
File228=1,,AKSHAR.DL_,AKSHAR.DLL,$(AppPath),,,7/18/1996 0:00:00,20145,,"","",""
File229=1,,APS2AKR.DL_,APS2AKR.DLL,$(AppPath),,,6/17/1999 15:04:04,20430,,"","",""
File230=1,,APS2IND.DL_,APS2IND.DLL,$(AppPath),,,2/21/1999 19:14:32,10478,,"","",""
File231=1,,APS2ISC.DL_,APS2ISC.DLL,$(AppPath),,,2/21/1999 15:07:56,13505,,"","",""
File232=1,,APS2ISM.DL_,APS2ISM.DLL,$(AppPath),,,6/17/1999 15:12:40,10132,,"","",""
File233=1,,APS2ITR.DL_,APS2ITR.DLL,$(AppPath),,,2/21/1999 19:28:38,10430,,"","",""
File234=1,,APS2KRT.DL_,APS2KRT.DLL,$(AppPath),,,6/17/1999 15:05:10,20370,,"","",""
File235=1,,APS2MODN.DL_,APS2MODN.DLL,$(AppPath),,,2/21/1999 19:38:50,9708,,"","",""
File236=1,,APS2MON.DL_,APS2MON.DLL,$(AppPath),,,2/22/1999 10:29:44,10473,,"","",""
File237=1,,APS2PRK.DL_,APS2PRK.DLL,$(AppPath),,,2/22/1999 10:38:34,10281,,"","",""
File238=1,,APS2RNG.DL_,APS2RNG.DLL,$(AppPath),,,6/17/1999 14:57:18,10042,,"","",""
File239=1,,APS40CC.DL_,APS40CC.DLL,$(WinSysPath),,,10/24/1999 11:27:58,51712,,"","",""
File240=1,,APSDV.dl_,APSDV.dll,$(AppPath),,,11/4/1999 15:54:04,61440,,"","",""
File241=1,,APSGJ.dl_,APSGJ.dll,$(AppPath),,,11/4/1999 15:56:02,40448,,"","",""
File242=1,,Apsvd.dl_,Apsvd.dll,$(AppPath),,,11/4/1999 15:58:36,47616,,"","",""
File243=1,,COR2PROF.DL_,COR2PROF.DLL,$(AppPath),,,6/17/1999 15:00:04,10134,,"","",""
File244=1,,CORDV.DL_,CORDV.DLL,$(AppPath),,,11/2/1999 16:18:10,61952,,"","",""
File245=1,,CORGJ.DL_,CORGJ.DLL,$(AppPath),,,11/2/1999 14:13:34,39936,,"","",""
File246=1,,DEVY.DL_,DEVY.DLL,$(AppPath),,,5/27/1996 0:00:00,28611,,"","",""
File247=1,,IND2APS.DL_,IND2APS.DLL,$(AppPath),,,2/21/1999 19:14:42,10291,,"","",""
File248=1,,inddv.dl_,inddv.dll,$(AppPath),,,11/4/1999 16:06:04,40448,,"","",""
File249=1,,ISC2APS.DL_,ISC2APS.DLL,$(AppPath),,,2/21/1999 17:54:04,11316,,"","",""
File250=1,,ISM2APS.DL_,ISM2APS.DLL,$(AppPath),,,2/10/1999 15:43:22,12932,,"","",""
File251=1,,ismdv.dl_,ismdv.dll,$(AppPath),,,11/4/1999 16:08:44,38912,,"","",""
File252=1,,ITR2APS.DL_,ITR2APS.DLL,$(AppPath),,,2/21/1999 19:28:48,9553,,"","",""
File253=1,,itrdv.dl_,itrdv.dll,$(AppPath),,,10/21/1999 13:32:04,39936,,"","",""
File254=1,,KRT2APS.DL_,KRT2APS.DLL,$(AppPath),,,6/17/1999 15:05:48,20370,,"","",""
File255=1,,krtdv.dl_,krtdv.dll,$(AppPath),,,10/21/1999 13:41:18,38400,,"","",""
File256=1,,LE.DL_,LE.DLL,$(AppPath),,,7/18/1996 0:00:00,33129,,"","",""
File257=1,,mdndv.dl_,mdndv.dll,$(AppPath),,,10/21/1999 13:47:52,40448,,"","",""
File258=1,,MODN2APS.DL_,MODN2APS.DLL,$(AppPath),,,2/21/1999 19:39:04,9555,,"","",""
File259=1,,MODU.DL_,MODU.DLL,$(AppPath),,,5/27/1996 0:00:00,28023,,"","",""
File260=1,,MON2APS.DL_,MON2APS.DLL,$(AppPath),,,2/22/1999 10:30:00,9553,,"","",""
File261=1,,PRAK.DL_,PRAK.DLL,$(AppPath),,,2/20/1996 0:00:00,18294,,"","",""
File262=1,,FCW40.IN_,FCW40.INI,$(WinPath),,,11/4/1999 15:18:04,391,,"","",""
File263=1,,APSCNV40.IN_,APSCNV40.INI,$(WinPath),,,6/22/1999 10:56:20,170,,"","",""
File264=1,,APS40CD.IN_,APS40CD.INI,$(WinPath),,,11/4/1999 15:16:54,568,,"","",""
File265=1,,aps40.ex_,aps40.exe,$(AppPath),,,11/25/1999 15:03:06,95232,1.0.0.0,"","aps40","$(AppPath)\aps40.exe"
File266=1,,RNG2APS.DL_,RNG2APS.DLL,$(AppPath),,,6/17/1999 14:54:12,10022,,"","",""
File267=1,,PRK2APS.DL_,PRK2APS.DLL,$(AppPath),,,2/22/1999 10:38:46,9553,,"","",""
File268=1,,AKR2APS.DL_,AKR2APS.DLL,$(AppPath),,,6/17/1999 15:03:04,20430,,"","",""
File269=1,,RTF_CNV.DL_,RTF_CNV.DLL,$(AppPath),,,3/12/1999 22:50:02,18577,,"","",""
File270=1,,rngdv.dl_,rngdv.dll,$(AppPath),,,10/21/1999 18:27:58,37888,,"","",""
File271=1,,prkdv.dl_,prkdv.dll,$(AppPath),,,10/21/1999 13:50:44,39936,,"","",""
File272=1,,COR2PROF.TC_,COR2PROF.TCF,$(AppPath),,,5/31/1999 11:05:36,1517,,"","",""
File273=1,,AKR2APS.TC_,AKR2APS.TCF,$(AppPath),,,6/7/1999 16:57:24,1499,,"","",""
File274=1,,APS2AKR.TC_,APS2AKR.TCF,$(AppPath),,,6/9/1999 13:36:18,1613,,"","",""
File275=1,,APS2IND.TC_,APS2IND.TCF,$(AppPath),,,2/21/1999 15:12:56,3351,,"","",""
File276=1,,APS2ISC.TC_,APS2ISC.TCF,$(AppPath),,,2/21/1999 15:05:12,2043,,"","",""
File277=1,,APS2ISM.TC_,APS2ISM.TCF,$(AppPath),,,5/21/1999 15:38:38,3030,,"","",""
File278=1,,APS2ITR.TC_,APS2ITR.TCF,$(AppPath),,,2/21/1999 15:12:24,3298,,"","",""
File279=1,,APS2KRT.TC_,APS2KRT.TCF,$(AppPath),,,6/11/1999 12:15:48,2830,,"","",""
File280=1,,APS2MODN.TC_,APS2MODN.TCF,$(AppPath),,,2/21/1999 15:13:56,3361,,"","",""
File281=1,,APS2MON.TC_,APS2MON.TCF,$(AppPath),,,2/22/1999 11:01:22,2996,,"","",""
File282=1,,APS2PRK.TC_,APS2PRK.TCF,$(AppPath),,,2/21/1999 15:14:48,2784,,"","",""
File283=1,,APS2RNG.TC_,APS2RNG.TCF,$(AppPath),,,5/25/1999 11:40:54,2542,,"","",""
File284=1,,AKR.TC_,AKR.TCF,$(AppPath),,,7/17/1996 0:00:00,1060,,"","",""
File285=1,,SRATNA.TC_,SRATNA.TCF,$(AppPath),,,6/13/1996 0:00:00,3038,,"","",""
File286=1,,IND2APS.TC_,IND2APS.TCF,$(AppPath),,,2/21/1999 15:22:36,3183,,"","",""
File287=1,,ISC2APS.TC_,ISC2APS.TCF,$(AppPath),,,2/21/1999 17:55:20,2842,,"","",""
File288=1,,ISM2APS.TC_,ISM2APS.TCF,$(AppPath),,,2/21/1999 15:23:08,2406,,"","",""
File289=1,,ITR2APS.TC_,ITR2APS.TCF,$(AppPath),,,2/21/1999 15:23:16,2869,,"","",""
File290=1,,KRT2APS.TC_,KRT2APS.TCF,$(AppPath),,,6/11/1999 12:15:16,2677,,"","",""
File291=1,,LE.TC_,LE.TCF,$(AppPath),,,6/11/1996 0:00:00,1812,,"","",""
File292=1,,MODN2APS.TC_,MODN2APS.TCF,$(AppPath),,,2/21/1999 15:23:32,3044,,"","",""
File293=1,,MON2APS.TC_,MON2APS.TCF,$(AppPath),,,2/21/1999 15:23:56,2848,,"","",""
File294=1,,PRAK.TC_,PRAK.TCF,$(AppPath),,,12/17/1996 11:24:58,1722,,"","",""
File295=1,,PRK2APS.TC_,PRK2APS.TCF,$(AppPath),,,2/21/1999 15:24:08,2689,,"","",""
File296=1,,RNG2APS.TC_,RNG2APS.TCF,$(AppPath),,,6/9/1999 17:34:02,2228,,"","",""
File297=1,,SP.TC_,SP.TCF,$(AppPath),,,12/21/1995 0:00:00,1716,,"","",""
File298=1,,RNGDV.TT_,RNGDV.TTF,$(AppPath),,,5/27/1999 17:16:20,48440,,"","",""
File299=1,,INDDV.TT_,INDDV.TTF,$(AppPath),,,4/18/1999 19:56:24,62628,,"","",""
File300=1,,ISMDV.TT_,ISMDV.TTF,$(AppPath),,,4/18/1999 20:03:32,49832,,"","",""
File301=1,,ITRDV.TT_,ITRDV.TTF,$(AppPath),,,4/18/1999 20:07:58,64052,,"","",""
File302=1,,KRTDV.TT_,KRTDV.TTF,$(AppPath),,,4/18/1999 20:11:30,63128,,"","",""
File303=1,,MDNDV.TT_,MDNDV.TTF,$(AppPath),,,4/18/1999 20:35:10,56964,,"","",""
File304=1,,PRKDV.TT_,PRKDV.TTF,$(AppPath),,,4/18/1999 20:37:26,50432,,"","",""
File305=1,,SP.DL_,SP.DLL,$(AppPath),,,12/21/1995 0:00:00,20318,,"","",""
File306=1,,SR.DL_,SR.DLL,$(AppPath),,,6/12/1996 0:00:00,24476,,"","",""
File307=1,,shabda.ex_,shabda.exe,$(AppPath),,,11/6/1999 17:38:48,74752,1.0.0.0,"","",""
File308=1,,eng2isc.dl_,eng2isc.dll,$(AppPath),,,10/30/1999 18:02:24,30720,,"","",""
File309=1,,IS2AS32.DL_,IS2AS32.DLL,$(AppPath),,,8/27/1999 19:46:18,137216,,"","",""
File310=1,,MTISCDV.TT_,MTISCDV.TTF,$(AppPath),,,8/27/1999 19:46:18,137216,,"","",""
File311=1,,DESUNST.EX_,DESUNST.EXE,$(WinPath),,,8/27/1999 19:46:18,137216,,"","",""
File312=1,,GRP32.DL_,GRP32.DLL,$(WinSysPath),,,9/21/1999 5:12:10,132096,,"","",""
File313=1,,CCMOVE32.DL_,CCMOVE32.DLL,$(WinSysPath),,,9/21/1999 5:12:10,132096,,"","",""
File314=1,,REGSVR16.EX_,REGSVR16.EXE,$(WinSysPath),,,12/30/1995 12:00:00,5679,1.0.0.0,"","",""
File315=1,,sellib35.DL_,sellib35.DLL,$(AppPath),,,9/21/1999 5:12:10,132096,,"","",""
File316=1,,MSVCRT.dl_,MSVCRT.dll,$(WinSysPathSysFile),,,1/5/1999 1:00:00,266293,6.0.8337.0,"","",""
File317=1,,COMDLG16.OC_,COMDLG16.OCX,$(WinSysPath),,,7/26/1995 0:00:00,177824,1.0.41.0,"","",""
File318=1,,isc2guj.tc_,isc2guj.tcf,$(AppPath),,,9/21/1999 5:12:10,132096,,"","",""
File319=1,,LOCK.EX_,LOCK.EXE,$(AppPath),,,9/21/1999 5:12:10,132096,,"","",""
File320=1,,KEYPAD.EX_,KEYPAD.EXE,$(AppPath),,,9/21/1999 5:12:10,132096,,"","",""
File321=1,,keydll.dl_,keydll.dll,$(AppPath),,,9/21/1999 5:12:10,132096,,"","",""
File322=1,,chitragupt.ex_,chitragupt.exe,$(AppPath),,,9/21/1999 5:12:10,132096,,"","",""
File323=1,,names.md_,names.mdb,$(AppPath),,,9/21/1999 5:12:10,132096,,"","",""
File324=1,,tipofday.tx_,tipofday.txt,$(AppPath),,,9/21/1999 5:12:10,132096,,"","",""
File325=1,,VB40016.DL_,VB40016.DLL,$(WinSysPath),,,8/15/1995 18:02:24,935632,4.0.24.22,"","",""
File326=1,,VB5DB.dl_,VB5DB.dll,$(WinSysPath),,$(Shared),6/18/1998 0:00:00,89360,6.0.81.69,"","",""
File327=1,,DAO350.dl_,DAO350.dll,$(MSDAOPath),$(DLLSelfRegister),$(Shared),4/27/1998 0:00:00,570128,3.51.1608.0,"","",""
File328=1,,MSJet35.dl_,MSJet35.dll,$(WinSysPathSysFile),$(DLLSelfRegister),,4/7/1999 9:12:48,1056768,3.51.2026.0,"","",""
File329=1,,MSJInt35.dl_,MSJInt35.dll,$(WinSysPathSysFile),,,4/24/1998 0:00:00,123664,3.51.623.0,"","",""
File330=1,,MSJtEr35.dl_,MSJtEr35.dll,$(WinSysPathSysFile),,,4/24/1998 0:00:00,24848,3.51.623.0,"","",""
File331=1,,MSRD2x35.dl_,MSRD2x35.dll,$(WinSysPathSysFile),$(DLLSelfRegister),,4/24/1998 0:00:00,252176,3.51.623.0,"","",""
File332=1,,MsRepl35.dl_,MsRepl35.dll,$(WinSysPathSysFile),,,4/7/1999 9:12:48,417792,3.51.2010.0,"","",""
File333=1,,OC25.DL_,OC25.DLL,$(WinSysPath),,,11/21/1996 17:47:32,538048,,"","",""
File334=1,,ODBCJI32.dl_,ODBCJI32.dll,$(WinSysPathSysFile),,,5/31/1998 0:00:00,37888,3.51.1713.0,"","",""
File335=1,,ODBCJt32.dl_,ODBCJt32.dll,$(WinSysPathSysFile),,,5/31/1998 0:00:00,247296,3.51.1713.0,"","",""
File336=1,,ODBCTL32.dl_,ODBCTL32.dll,$(WinSysPathSysFile),,,5/31/1998 0:00:00,72704,3.51.1713.0,"","",""
File337=1,,RichEd32.dl_,RichEd32.dll,$(WinSysPathSysFile),,,1/13/1997 0:00:00,174352,4.0.993.4,"","",""
File338=1,,SCRRUN.DL_,SCRRUN.DLL,$(WinSysPath),$(DLLSelfRegister),$(Shared),5/26/1998 0:00:00,402481,4.0.0.2926,"","",""
File339=1,,VBAJet32.dl_,VBAJet32.dll,$(WinSysPathSysFile),,,1/22/1999 0:00:00,30992,6.0.1.8268,"","",""
File340=1,,DBGRID32.OC_,DBGRID32.OCX,$(WinSysPath),$(DLLSelfRegister),$(Shared),6/24/1998 0:00:00,525352,5.1.81.4,"","",""
File341=1,,DBLIST32.OC_,DBLIST32.OCX,$(WinSysPath),$(DLLSelfRegister),$(Shared),6/24/1998 0:00:00,200496,6.0.81.69,"","",""
File342=1,,MSMAPI32.OC_,MSMAPI32.OCX,$(WinSysPath),$(DLLSelfRegister),$(Shared),6/24/1998 0:00:00,137000,6.0.81.69,"","",""
File343=1,,RICHTX32.OC_,RICHTX32.OCX,$(WinSysPath),$(DLLSelfRegister),$(Shared),6/24/1998 0:00:00,203576,6.0.81.69,"","",""
File344=1,,TABCTL32.OC_,TABCTL32.OCX,$(WinSysPath),$(DLLSelfRegister),$(Shared),6/24/1998 0:00:00,209192,6.0.81.69,"","",""
File345=1,,dao2535.tl_,dao2535.tlb,$(MSDAOPath),$(TLBRegister),$(Shared),5/15/1998 0:00:00,73184,,"","",""
File346=1,,PRKSN.TT_,PRKSN.TTF,$(AppPath),,,6/9/1999 11:01:50,55756,,"","",""
File347=1,,$KAVITAN.TT_,$KAVITAN.TTF,$(AppPath),,,6/9/1999 11:01:50,55756,,"","",""
File348=1,,APSEMAIL.EX_,APSEMAIL.EXE,$(AppPath),,,6/9/1999 11:01:50,55756,,"","",""
File349=1,,MTAPSDV.TT_,MTAPSDV.TTF,$(AppPath),,,8/11/1999 16:42:56,58072,,"","",""
File350=1,,MTAKRDV.TT_,MTAKRDV.TTF,$(AppPath),,,8/11/1999 16:42:56,58072,,"","",""
File351=1,,MTINDDV.TT_,MTINDDV.TTF,$(AppPath),,,8/11/1999 16:42:56,58072,,"","",""
File352=1,,MTISMDV.TT_,MTISMDV.TTF,$(AppPath),,,8/11/1999 16:42:56,58072,,"","",""
File353=1,,MTITRDV.TT_,MTITRDV.TTF,$(AppPath),,,8/11/1999 16:42:56,58072,,"","",""
File354=1,,MTKRTDV.TT_,MTKRTDV.TTF,$(AppPath),,,8/11/1999 16:42:56,58072,,"","",""
File355=1,,MTPRKDV.TT_,MTPRKDV.TTF,$(AppPath),,,8/11/1999 16:42:56,58072,,"","",""
File356=1,,MTRNGDV.TT_,MTRNGDV.TTF,$(AppPath),,,8/11/1999 16:42:56,58072,,"","",""
File357=1,,MTCORDV.TT_,MTCORDV.TTF,$(AppPath),,,8/11/1999 16:42:56,58072,,"","",""
File358=1,,MTMDNDV.TT_,MTMDNDV.TTF,$(AppPath),,,8/11/1999 16:42:56,58072,,"","","
File359=1,,chitra40.hl_,chitra40.hlp,$(AppPath),,,9/21/1999 5:12:10,132096,,"","",""

[Setup]
Title=APS Designer 4.0
DefProgramGroup=APS Designer 4.0
DefaultDir=$(ProgramFiles)\APS40
Setup=setup1.exe
AppExe=aps40.exe
AppToUninstall=aps40.exe
AppPath=
